<?xml version="1.0" encoding="UTF-8" standalone="no"?>
<!-- Created with Inkscape (http://www.inkscape.org/) -->

<svg
   version="1.1"
   id="svg148"
   width="1100"
   height="430"
   viewBox="0 0 1100 430"
   sodipodi:docname="licensing-spectrum.svg"
   inkscape:version="1.2.2 (b0a8486541, 2022-12-01)"
   xmlns:inkscape="http://www.inkscape.org/namespaces/inkscape"
   xmlns:sodipodi="http://sodipodi.sourceforge.net/DTD/sodipodi-0.dtd"
   xmlns="http://www.w3.org/2000/svg"
   xmlns:svg="http://www.w3.org/2000/svg"
   xmlns:rdf="http://www.w3.org/1999/02/22-rdf-syntax-ns#"
   xmlns:cc="http://creativecommons.org/ns#"
   xmlns:dc="http://purl.org/dc/elements/1.1/">
  <sodipodi:namedview
     id="namedview125"
     pagecolor="#505050"
     bordercolor="#ffffff"
     borderopacity="1"
     inkscape:showpageshadow="0"
     inkscape:pageopacity="0"
     inkscape:pagecheckerboard="1"
     inkscape:deskcolor="#505050"
     showgrid="false"
     inkscape:zoom="1.7009133"
     inkscape:cx="383.9114"
     inkscape:cy="174.31811"
     inkscape:window-width="1920"
     inkscape:window-height="1003"
     inkscape:window-x="0"
     inkscape:window-y="0"
     inkscape:window-maximized="1"
     inkscape:current-layer="svg148" />
  <title
     id="title12389">Software_licensing_spectrum</title>
  <defs
     id="defs152">
    <marker
       style="overflow:visible"
       id="marker1554"
       refX="2"
       refY="0"
       orient="auto-start-reverse"
       markerWidth="10"
       markerHeight="10"
       preserveAspectRatio="xMidYMid">
      <path
         style="fill:#155a98;fill-rule:evenodd;stroke:#155a98;stroke-width:1pt"
         d="M 5,0 -5,5 V -5 Z"
         id="path1552" />
    </marker>
  </defs>
  <rect
     style="fill:#ffffff"
     id="rect433"
     width="1100"
     height="430"
     x="0"
     y="0" />
  <text
     xml:space="default"
     style="fill:#000000"
     x="110"
     y="25"
     id="text323"
     font-weight="bold"
     text-anchor="middle"><tspan
       id="tspan321">PERMESA</tspan></text>
  <text
     xml:space="default"
     style="fill:#000000"
     x="330"
     y="20"
     id="text438"
     font-weight="bold"
     text-anchor="middle"><tspan
       sodipodi:role="line"
       id="tspan503"
       x="330"
       y="20"><tspan
         id="tspan436"
         x="330"
         dy="0 0 0 0 0 0 0 0 0 0 0 0 0 0">MOLA RAJTOCEDO</tspan></tspan><tspan
       sodipodi:role="line"
       x="330"
       y="35"
       id="tspan511"><tspan
         x="330"
         id="tspan513">(BAZITA SUR DOSIEROJ)</tspan></tspan></text>
  <text
     xml:space="default"
     style="fill:#000000"
     x="550"
     y="20"
     id="text1643"
     font-weight="bold"
     text-anchor="middle"><tspan
       sodipodi:role="line"
       id="tspan516"
       x="550"
       y="20"><tspan
         id="tspan1641"
         x="550"
         dy="0 0 0 0">MOLA RAJTOCEDO</tspan></tspan><tspan
       sodipodi:role="line"
       id="tspan518"
       x="550"
       y="35"><tspan
         x="550"
         id="tspan520">(BAZITA SUR BIBLIOTEKOJ)</tspan></tspan></text>
  <text
     xml:space="default"
     style="fill:#000000"
     x="770"
     y="25"
     id="text488"
     font-weight="bold"
     text-anchor="middle"><tspan
       id="tspan486">FORTA RAJTOCEDO</tspan></text>
  <text
     xml:space="default"
     style="fill:#000000"
     x="990"
     y="25"
     id="text492"
     font-weight="bold"
     text-anchor="middle"><tspan
       id="tspan490">RETA PROTEKTO</tspan></text>
  <rect
     style="fill:#155a98"
     id="rect205"
     width="200"
     height="80"
     x="10"
     y="40"
     rx="10" />
  <rect
     style="fill:#6f8fbf"
     id="rect175"
     width="196"
     height="37"
     x="12"
     y="42"
     rx="8" />
  <text
     xml:space="default"
     style="fill:#000000"
     x="110"
     y="65"
     id="text544"
     text-anchor="middle"><tspan
       id="tspan542">PUBLIKA HAVAĴO</tspan></text>
  <rect
     style="fill:#92a8cf"
     id="rect179"
     width="196"
     height="37"
     x="12"
     y="81"
     rx="8" />
  <text
     xml:space="default"
     style="fill:#000000"
     x="110"
     y="105"
     id="text581"
     text-anchor="middle"><tspan
       id="tspan579">SQLite</tspan></text>
  <rect
     style="fill:#155a98"
     id="rect208"
     width="200"
     height="80"
     x="10"
     y="140"
     rx="10" />
  <rect
     style="fill:#6f8fbf"
     id="rect178"
     width="196"
     height="37"
     x="12"
     y="142"
     rx="8" />
  <text
     xml:space="default"
     style="fill:#000000"
     x="110"
     y="165"
     id="text637"
     text-anchor="middle"><tspan
       id="tspan635">MIT</tspan></text>
  <rect
     style="fill:#92a8cf"
     id="rect180"
     width="196"
     height="37"
     x="12"
     y="181"
     rx="8" />
  <text
     xml:space="default"
     style="fill:#000000"
     x="110"
     y="196"
     id="text641"
     text-anchor="middle"><tspan
       id="tspan639"
       x="110">Node.js, Wayland, X11, </tspan><tspan
       id="tspan643"
       dy="1.2em"
       x="110">Ruby on Rails</tspan></text>
  <rect
     style="fill:#155a98"
     id="rect210"
     width="200"
     height="80"
     x="10"
     y="240"
     rx="10" />
  <rect
     style="fill:#6f8fbf"
     id="rect182"
     width="196"
     height="37"
     x="12"
     y="242"
     rx="8" />
  <text
     xml:space="default"
     style="fill:#000000"
     x="110"
     y="265"
     id="text649"
     text-anchor="middle"><tspan
       id="tspan645">BSD-3-Clause</tspan></text>
  <rect
     style="fill:#92a8cf"
     id="rect184"
     width="196"
     height="37"
     x="12"
     y="281"
     rx="8" />
  <text
     xml:space="default"
     style="fill:#000000"
     x="110"
     y="305"
     id="text653"
     text-anchor="middle"><tspan
       id="tspan651">libssh2</tspan></text>
  <rect
     style="fill:#155a98"
     id="rect212"
     width="200"
     height="80"
     x="10"
     y="340"
     rx="10" />
  <rect
     style="fill:#6f8fbf"
     id="rect186"
     width="196"
     height="37"
     x="12"
     y="342"
     rx="8" />
  <text
     xml:space="default"
     style="fill:#000000"
     x="110"
     y="365"
     id="text718"
     text-anchor="middle"><tspan
       id="tspan716">Apache-2.0</tspan></text>
  <rect
     style="fill:#92a8cf"
     id="rect188"
     width="196"
     height="37"
     x="12"
     y="381"
     rx="8" />
  <text
     xml:space="default"
     style="fill:#000000"
     x="110"
     y="396"
     id="text722"
     text-anchor="middle"><tspan
       id="tspan720"
       x="110">Apache HTTP Server, </tspan><tspan
       id="tspan724"
       dy="1.2em"
       x="110">OpenOffice, Android</tspan></text>
  <rect
     style="fill:#155a98"
     id="rect220"
     width="200"
     height="80"
     x="230"
     y="240"
     rx="10" />
  <rect
     style="fill:#6f8fbf"
     id="rect202"
     width="196"
     height="37"
     x="232"
     y="242"
     rx="8" />
  <text
     xml:space="default"
     style="fill:#000000"
     x="330"
     y="265"
     id="text1043"
     text-anchor="middle"><tspan
       id="tspan1041">MPL-2.0</tspan></text>
  <rect
     style="fill:#92a8cf"
     id="rect204"
     width="196"
     height="37"
     x="232"
     y="281"
     rx="8" />
  <text
     xml:space="default"
     style="fill:#000000"
     x="330"
     y="296"
     id="text1047"
     text-anchor="middle"><tspan
       id="tspan1045"
       x="330">Firefox, Thunderbird, </tspan><tspan
       id="tspan607"
       x="330"
       dy="1.2em">LibreOffice</tspan></text>
  <rect
     style="fill:#155a98"
     id="rect10501"
     width="200"
     height="80"
     x="230"
     y="340"
     rx="10" />
  <rect
     style="fill:#6f8fbf"
     id="rect11229"
     width="196"
     height="37"
     x="232"
     y="342"
     rx="8" />
  <text
     xml:space="default"
     style="fill:#000000"
     x="330"
     y="365"
     id="text14137"
     text-anchor="middle"><tspan
       id="tspan14135">CDDL-1.0</tspan></text>
  <rect
     style="fill:#92a8cf"
     id="rect14469"
     width="196"
     height="37"
     x="232"
     y="381"
     rx="8" />
  <text
     xml:space="default"
     style="fill:#000000"
     x="330"
     y="405"
     id="text14803"
     text-anchor="middle"><tspan
       id="tspan14801">illumos, OpenZFS</tspan></text>
  <rect
     style="fill:#155a98"
     id="rect214"
     width="200"
     height="80"
     x="450"
     y="90"
     rx="10" />
  <rect
     style="fill:#6f8fbf"
     id="rect190"
     width="196"
     height="37"
     x="452"
     y="92"
     rx="8" />
  <text
     xml:space="default"
     style="fill:#000000"
     x="550"
     y="115"
     id="text794"
     text-anchor="middle"><tspan
       id="tspan792">Nur LGPL-2.1</tspan></text>
  <rect
     style="fill:#92a8cf"
     id="rect192"
     width="196"
     height="37"
     x="452"
     y="131"
     rx="8" />
  <text
     xml:space="default"
     style="fill:#000000"
     x="550"
     y="155"
     id="text798"
     text-anchor="middle"><tspan
       id="tspan796" /></text>
  <rect
     style="fill:#155a98"
     id="rect216"
     width="200"
     height="80"
     x="450"
     y="190"
     rx="10" />
  <rect
     style="fill:#6f8fbf"
     id="rect194"
     width="196"
     height="37"
     x="452"
     y="192"
     rx="8" />
  <text
     xml:space="default"
     style="fill:#000000"
     x="550"
     y="215"
     id="text872"
     text-anchor="middle"><tspan
       id="tspan870">LGPL-2.1-aŭ-posta</tspan></text>
  <rect
     style="fill:#92a8cf"
     id="rect196"
     width="196"
     height="37"
     x="452"
     y="231"
     rx="8" />
  <text
     xml:space="default"
     style="fill:#000000"
     x="550"
     y="255"
     id="text876"
     text-anchor="middle"><tspan
       id="tspan874">FFmpeg, Shotwell, VLC</tspan></text>
  <rect
     style="fill:#155a98"
     id="rect218"
     width="200"
     height="80"
     x="450"
     y="290"
     rx="10" />
  <rect
     style="fill:#6f8fbf"
     id="rect198"
     width="196"
     height="37"
     x="452"
     y="292"
     rx="8" />
  <text
     xml:space="default"
     style="fill:#000000"
     x="550"
     y="306"
     id="text954"
     text-anchor="middle"><tspan
       sodipodi:role="line"
       id="tspan530"
       x="550"
       y="306"><tspan
         id="tspan952"
         x="550"
         dy="0 0 0 0 0 0 0 0 0 0 0 0 0 0 0">Nur LGPL-3.0 aŭ</tspan></tspan><tspan
       sodipodi:role="line"
       id="tspan532"
       x="550"
       y="321"><tspan
         x="550"
         id="tspan534">LGPL-3.0-aŭ-later</tspan></tspan></text>
  <rect
     style="fill:#92a8cf"
     id="rect200"
     width="196"
     height="37"
     x="452"
     y="331"
     rx="8" />
  <text
     xml:space="default"
     style="fill:#000000"
     x="550"
     y="355"
     id="text958"
     text-anchor="middle"><tspan
       id="tspan956">Adwaita Icon Theme, Qt</tspan></text>
  <rect
     style="fill:#155a98"
     id="rect222"
     width="200"
     height="80"
     x="670"
     y="190"
     rx="10" />
  <rect
     style="fill:#6f8fbf"
     id="rect206"
     width="196"
     height="37"
     x="672"
     y="192"
     rx="8" />
  <text
     xml:space="default"
     style="fill:#000000"
     x="770"
     y="215"
     id="text1137"
     text-anchor="middle"><tspan
       id="tspan1135">nur GPL-2.0</tspan></text>
  <rect
     style="fill:#92a8cf"
     id="rect209"
     width="196"
     height="37"
     x="672"
     y="231"
     rx="8" />
  <text
     xml:space="default"
     style="fill:#000000"
     x="770"
     y="255"
     id="text1141"
     text-anchor="middle"><tspan
       id="tspan1139">Linux kernel</tspan></text>
  <rect
     style="fill:#155a98"
     id="rect224"
     width="200"
     height="80"
     x="670"
     y="290"
     rx="10" />
  <rect
     style="fill:#6f8fbf"
     id="rect211"
     width="196"
     height="37"
     x="672"
     y="292"
     rx="8" />
  <text
     xml:space="default"
     style="fill:#000000"
     x="770"
     y="306"
     id="text1145"
     text-anchor="middle"><tspan
       sodipodi:role="line"
       id="tspan523"
       x="770"
       y="306"><tspan
         id="tspan1143"
         x="770">Nur GPL-3.0 aŭ</tspan></tspan><tspan
       sodipodi:role="line"
       id="tspan525"
       x="770"
       y="321"><tspan
         x="770"
         id="tspan527">GPL-3.0-aŭ-posta</tspan></tspan></text>
  <rect
     style="fill:#92a8cf"
     id="rect213"
     width="196"
     height="37"
     x="672"
     y="331"
     rx="8" />
  <text
     xml:space="default"
     style="fill:#000000"
     x="770"
     y="355"
     id="text1149"
     text-anchor="middle"><tspan
       id="tspan1147">GCC</tspan></text>
  <rect
     style="fill:#155a98"
     id="rect226"
     width="200"
     height="80"
     x="890"
     y="290"
     rx="10" />
  <rect
     style="fill:#6f8fbf"
     id="rect215"
     width="196"
     height="37"
     x="892"
     y="292"
     rx="8" />
  <text
     xml:space="default"
     style="fill:#000000"
     x="990"
     y="315"
     id="text1153"
     text-anchor="middle"><tspan
       id="tspan1151">AGPL-3.0</tspan></text>
  <rect
     style="fill:#92a8cf"
     id="rect217"
     width="196"
     height="37"
     x="892"
     y="331"
     rx="8" />
  <text
     xml:space="default"
     style="fill:#000000"
     x="990"
     y="355"
     id="text1157"
     text-anchor="middle"><tspan
       id="tspan1155">Launchpad, Mastodon</tspan></text>
  <metadata
     id="metadata8760">
    <rdf:RDF>
      <cc:Work
         rdf:about="">
        <cc:license
           rdf:resource="http://creativecommons.org/licenses/by-sa/3.0/" />
        <dc:title>Software_licensing_spectrum</dc:title>
        <dc:creator>
          <cc:Agent>
            <dc:title>David A. Wheeler, LinuxVoice.com</dc:title>
          </cc:Agent>
        </dc:creator>
        <dc:publisher>
          <cc:Agent>
            <dc:title>Wikimedia Commons</dc:title>
          </cc:Agent>
        </dc:publisher>
        <dc:contributor>
          <cc:Agent>
            <dc:title>et al.</dc:title>
          </cc:Agent>
        </dc:contributor>
        <dc:source>https://commons.wikimedia.org/wiki/File:Software_licensing_spectrum.svg</dc:source>
      </cc:Work>
      <cc:License
         rdf:about="http://creativecommons.org/licenses/by-sa/3.0/">
        <cc:permits
           rdf:resource="http://creativecommons.org/ns#Reproduction" />
        <cc:permits
           rdf:resource="http://creativecommons.org/ns#Distribution" />
        <cc:requires
           rdf:resource="http://creativecommons.org/ns#Notice" />
        <cc:requires
           rdf:resource="http://creativecommons.org/ns#Attribution" />
        <cc:permits
           rdf:resource="http://creativecommons.org/ns#DerivativeWorks" />
        <cc:requires
           rdf:resource="http://creativecommons.org/ns#ShareAlike" />
      </cc:License>
    </rdf:RDF>
  </metadata>
</svg>
